{
  "project_info": {
    "project_number": "671806759911",
    "firebase_url": "https://delivery-app-flutter-pruebas-default-rtdb.europe-west1.firebasedatabase.app",
    "project_id": "delivery-app-flutter-pruebas",
    "storage_bucket": "delivery-app-flutter-pruebas.appspot.com"
  },
  "client": [
    {
      "client_info": {
        "mobilesdk_app_id": "1:671806759911:android:6d4f2cb3a96acae5c35342",
        "android_client_info": {
          "package_name": "com.example.delivery"
        }
      },
      "oauth_client": [
        {
          "client_id": "671806759911-1en2lthp93m5guspnlcqlv42ca9mv3lv.apps.googleusercontent.com",
          "client_type": 1,
          "android_info": {
            "package_name": "com.example.delivery",
            "certificate_hash": "46f6eee2d9032dc16c08fdc39c7406760c41fd91"
          }
        },
        {
          "client_id": "671806759911-ui3osn30jurj5u5dunmbu2kp7h2slqqc.apps.googleusercontent.com",
          "client_type": 3
        }
      ],
      "api_key": [
        {
          "current_key": "AIzaSyBRPOyO8zI7Rrbfpc7a5a45lJXjOpF1Jpc"
        }
      ],
      "services": {
        "appinvite_service": {
          "other_platform_oauth_client": [
            {
              "client_id": "671806759911-ui3osn30jurj5u5dunmbu2kp7h2slqqc.apps.googleusercontent.com",
              "client_type": 3
            },
            {
              "client_id": "671806759911-t33p2hh6vhv55jhrt37l56kmo9fkkord.apps.googleusercontent.com",
              "client_type": 2,
              "ios_info": {
                "bundle_id": "com.deliveryappflutter.caneallesta"
              }
            }
          ]
        }
      }
    }
  ],
  "configuration_version": "1"
}